{
  "images" : [
    {
      "idiom" : "universal",
      "filename" : "4MSeH8bzWva22LK3CSJpJqaOWJ+QIIlPrwStInplQQpsjjmDIcaJLqcrgumhkGXjDnlUcbkO8XObBVmfb6RYF0TRm42Xa0TuGbqJfcvwaE9SK3BylCt+ewYEoqStDfPbDzzkCqC4hcHQ8JKyV7ziRSSn6WZzbyu8J8AAwA8SCerdxwlkwAAAABJRU5ErkJggg==.png",
      "scale" : "1x"
    },
    {
      "idiom" : "universal",
      "scale" : "2x"
    },
    {
      "idiom" : "universal",
      "scale" : "3x"
    }
  ],
  "info" : {
    "version" : 1,
    "author" : "xcode"
  }
}